{
    "program":"mame",
    "system":{
        "arcade":{
            "name":"Arcade",
            "icon":"arcade"
        },
        "nes":{
            "name":"Nintendo NES",
            "icon":"nes"
        },
        "snes":{
            "name":"Nintendo Super NES",
            "icon":"snes"
        },
        "gameboy":{
            "name":"Nintendo Game Boy",
            "icon":"gameboy"
        },
        "gbcolor":{
            "name":"Nintendo Game Boy Color",
            "icon":"gbcolor"
        },
        "gba":{
            "name":"Nintendo Game Boy Advance",
            "icon":"gba"
        },
        "sms":{
            "name":"Sega Master System",
            "icon":"sms"
        },
        "megadriv":{
            "name":"Sega Mega Drive",
            "icon":"megadriv"
        },
        "saturn":{
            "name":"Sega Saturn",
            "icon":"saturn"
        },
        "psx":{
            "name":"Sony PlayStation",
            "icon":"psx"
        },
        "sgx":{
            "name":"NEC SuperGrafx",
            "icon":"sgx"
        },
        "pce":{
            "name":"NEC PC Engine",
            "icon":"pce"
        },
        "vboy":{
            "name":"Nintendo Virtual Boy",
            "icon":"vboy"
        },
        "gamegear":{
            "name":"Sega Game Gear",
            "icon":"gamegear"
        },
        "x1":{
            "name":"Sharp X1",
            "icon":"x1"
        },
        "x68000":{
            "name":"Sharp X68000",
            "icon":"x68000"
        },
        "amiga":{
            "name":"Commodore Amiga",
            "icon":"amiga"
        },
        "cd32":{
            "name":"Commodore CD32",
            "icon":"cd32"
        },
        "lynx":{
            "name":"Atari Lynx",
            "icon":"lynx"
        },
        "jaguar":{
            "name":"Atari Jaguar",
            "icon":"jaguar"
        },
        "c64":{
            "name":"Commodore 64",
            "icon":"c64"
        },
        "spectrum":{
            "name":"Sinclair ZX Spectrum",
            "icon":"spectrum"
        },
        "cpc":{
            "name":"Amstrad CPC",
            "icon":"cpc"
        },
        "megacd":{
            "name":"Sega Mega CD",
            "icon":"megacd"
        },
        "fds":{
            "name":"Nintendo Famicom Disk System",
            "icon":"fds"
        },
        "ngpc":{
            "name":"SNK Neo Geo Pocket Color",
            "icon":"ngpc"
        },
        "fmtowns":{
            "name":"Fujitsu FM Towns",
            "icon":"fmtowns"
        },
        "pcfx":{
            "name":"NEC PC-FX",
            "icon":"pcfx"
        },
        "pc88":{
            "name":"NEC PC-88",
            "icon":"pc88"
        },
        "pc98":{
            "name":"NEC PC-98",
            "icon":"pc98"
        },
        "sg1000":{
            "name":"Sega SG-1000",
            "icon":"sg1000"
        },
        "st":{
            "name":"Atari ST",
            "icon":"st"
        },
        "vectrex":{
            "name":"GCS Vectrex",
            "icon":"vectrex"
        },
        "wscolor":{
            "name":"Bandai WonderSwan Color",
            "icon":"wscolor"
        }
    }
}